[gd_scene load_steps=4 format=2]

[ext_resource path="res://assets/images/notes/rectangle.png" type="Texture" id=1]
[ext_resource path="res://assets/fonts/aileron/Aileron-Bold.otf" type="DynamicFontData" id=2]

[sub_resource type="DynamicFont" id=1]
size = 24
font_data = ExtResource( 2 )

[node name="Node2D" type="Node2D"]

[node name="RichTextLabel" type="RichTextLabel" parent="."]
margin_left = 7.0
margin_top = -140.0
margin_right = 47.0
margin_bottom = -100.0
custom_fonts/mono_font = SubResource( 1 )
custom_fonts/normal_font = SubResource( 1 )
custom_colors/default_color = Color( 0, 0, 0, 1 )
text = "3"
__meta__ = {
"_edit_use_anchors_": false
}

[node name="TopBeam" type="TextureRect" parent="."]
modulate = Color( 0, 0, 0, 1 )
margin_left = 18.0
margin_top = -104.0
margin_right = 118.0
margin_bottom = -91.0
texture = ExtResource( 1 )
expand = true
__meta__ = {
"_edit_use_anchors_": false
}
