[gd_resource type="OccluderPolygon2D" format=2]

[resource]
closed = false
polygon = PoolVector2Array( 17.1576, -59.1544, 20.6931, -58.7756, 21.0719, 39.2092, 19.3041, 41.2295, 18.5465, 44.6388, 15.7686, 49.0582, 11.0966, 53.3514, 3.26795, 58.0233, -6.07596, 60.0436, -14.2834, 59.4123, -19.8393, 54.9929, -20.9757, 48.8057, -18.7029, 42.871, -11.8843, 35.8, -3.67684, 31.128, 3.8993, 28.9814, 11.3492, 29.8653, 17.0313, 33.022 )
