[gd_scene load_steps=3 format=2]

[ext_resource path="res://assets/images/bars/barStave.png" type="Texture" id=1]
[ext_resource path="res://scenes/PlayScene/Bar.gd" type="Script" id=2]

[node name="Bar" type="Node2D"]
script = ExtResource( 2 )

[node name="Sprite" type="Sprite" parent="."]
visible = false
position = Vector2( 214.745, 0 )
scale = Vector2( 1.2, 0.7 )
texture = ExtResource( 1 )

[node name="BarTexture" type="TextureRect" parent="."]
margin_left = -1.0
margin_top = -38.0
margin_right = 430.0
margin_bottom = 37.0
texture = ExtResource( 1 )
expand = true
__meta__ = {
"_edit_use_anchors_": false
}
