[gd_scene load_steps=5 format=2]

[ext_resource path="res://assets/images/Pointer.png" type="Texture" id=1]
[ext_resource path="res://scenes/PlayScene/Pointer.gd" type="Script" id=2]

[sub_resource type="SpriteFrames" id=1]
animations = [ {
"frames": [ ExtResource( 1 ) ],
"loop": true,
"name": "default",
"speed": 5.0
} ]

[sub_resource type="RectangleShape2D" id=2]
extents = Vector2( 100, 1 )

[node name="Pointer" type="Node2D"]
script = ExtResource( 2 )

[node name="AnimatedSprite" type="AnimatedSprite" parent="."]
modulate = Color( 1, 1, 1, 0.443137 )
position = Vector2( 0.250001, -1 )
scale = Vector2( 0.409091, 1.17241 )
frames = SubResource( 1 )

[node name="Area2D" type="Area2D" parent="."]

[node name="CollisionShape2D" type="CollisionShape2D" parent="Area2D"]
position = Vector2( 0, 99 )
rotation = 1.5708
shape = SubResource( 2 )

[connection signal="area_entered" from="Area2D" to="." method="_on_Area2D_area_entered"]
[connection signal="area_exited" from="Area2D" to="." method="_on_Area2D_area_exited"]
