{
  "name": "Half notes",
  "id": 12,
  "description":"Practice half notes! A Half note is held for 2 counts, which means it lasts half the length of a whole note.",
  "bpm": 100,
  "beatsPerBar": 4,
  "restIconLocation": "res://assets/images/rests/Rest minim.png",
  "noteIconLocation": "res://assets/images/notes/Minim.png",
  "beats": "HalfNotes.json",
  "xpRequirement": 0,
   "file_name": "100bpm.mp3"
}