[gd_scene load_steps=2 format=2]

[ext_resource path="res://scenes/SQL/CanvasLayer.gd" type="Script" id=1]

[node name="CanvasLayer" type="CanvasLayer"]
script = ExtResource( 1 )

[node name="Button2" type="Button" parent="."]
margin_left = 26.0
margin_top = 150.0
margin_right = 195.0
margin_bottom = 255.0
text = "OnInitialiseGame"
__meta__ = {
"_edit_use_anchors_": false
}

[node name="HTTPRequest" type="HTTPRequest" parent="."]

[node name="CompleteExercise" type="Button" parent="."]
margin_left = 617.0
margin_top = 280.0
margin_right = 950.0
margin_bottom = 358.0
text = "complete exercise"
__meta__ = {
"_edit_use_anchors_": false
}

[node name="CreateNewUserDebug" type="Button" parent="."]
margin_left = 24.0
margin_top = 35.0
margin_right = 232.0
margin_bottom = 111.0
text = "CreateNewUserDebug"
__meta__ = {
"_edit_use_anchors_": false
}

[node name="score" type="TextEdit" parent="."]
margin_left = 689.0
margin_top = 219.0
margin_right = 751.0
margin_bottom = 268.0
text = "0"
__meta__ = {
"_edit_use_anchors_": false
}

[node name="notesHitField" type="TextEdit" parent="."]
margin_left = 614.0
margin_top = 219.0
margin_right = 676.0
margin_bottom = 268.0
rect_pivot_offset = Vector2( 50, 61 )
text = "0"
__meta__ = {
"_edit_use_anchors_": false
}

[node name="finalStatus" type="TextEdit" parent="."]
margin_left = 529.243
margin_top = 221.119
margin_right = 591.243
margin_bottom = 270.119
rect_pivot_offset = Vector2( 50, 61 )
text = "0"
__meta__ = {
"_edit_use_anchors_": false
}

[node name="enterSscore" type="RichTextLabel" parent="."]
margin_left = 697.0
margin_top = 170.0
margin_right = 737.0
margin_bottom = 210.0
text = "enter score"
__meta__ = {
"_edit_use_anchors_": false
}

[node name="notesHit" type="RichTextLabel" parent="."]
margin_left = 623.0
margin_top = 168.0
margin_right = 663.0
margin_bottom = 208.0
rect_pivot_offset = Vector2( 20, 14 )
text = "notesHit"
__meta__ = {
"_edit_use_anchors_": false
}

[node name="passedtest" type="RichTextLabel" parent="."]
margin_left = 510.681
margin_top = 164.941
margin_right = 647.681
margin_bottom = 235.941
rect_pivot_offset = Vector2( 20, 14 )
text = "passed - 0
failed - 1
restarted - 2"
__meta__ = {
"_edit_use_anchors_": false
}

[node name="accuracy" type="RichTextLabel" parent="."]
margin_left = 756.0
margin_top = 166.0
margin_right = 828.0
margin_bottom = 206.0
text = "avg accuracy"
__meta__ = {
"_edit_use_anchors_": false
}

[node name="streak" type="RichTextLabel" parent="."]
margin_left = 832.0
margin_top = 164.0
margin_right = 893.0
margin_bottom = 204.0
text = "max streak"
__meta__ = {
"_edit_use_anchors_": false
}

[node name="exerciseID" type="RichTextLabel" parent="."]
margin_left = 892.0
margin_top = 161.0
margin_right = 953.0
margin_bottom = 201.0
rect_pivot_offset = Vector2( 0, 9 )
text = "exerciseID"
__meta__ = {
"_edit_use_anchors_": false
}

[node name="exerciseID2" type="RichTextLabel" parent="."]
margin_left = 104.0
margin_top = 409.0
margin_right = 165.0
margin_bottom = 449.0
rect_pivot_offset = Vector2( 0, 9 )
text = "exerciseID"
__meta__ = {
"_edit_use_anchors_": false
}

[node name="RemoveSave" type="Button" parent="."]
margin_left = 29.0
margin_top = 280.0
margin_right = 122.0
margin_bottom = 300.0
text = "RemoveSave"
__meta__ = {
"_edit_use_anchors_": false
}

[node name="playerName" type="RichTextLabel" parent="."]
margin_left = 390.0
margin_top = 67.0
margin_right = 560.0
margin_bottom = 97.0
rect_pivot_offset = Vector2( 56, 15 )
text = "currentPlayerName"
__meta__ = {
"_edit_use_anchors_": false
}

[node name="playerID" type="RichTextLabel" parent="."]
margin_left = 391.0
margin_top = 93.0
margin_right = 561.0
margin_bottom = 123.0
rect_pivot_offset = Vector2( 56, 15 )
text = "playerID"
__meta__ = {
"_edit_use_anchors_": false
}

[node name="leaderGroup" type="RichTextLabel" parent="."]
margin_left = 390.0
margin_top = 124.0
margin_right = 560.0
margin_bottom = 154.0
rect_pivot_offset = Vector2( 56, 15 )
text = "leaderboardgroup"
__meta__ = {
"_edit_use_anchors_": false
}

[node name="totalScore" type="RichTextLabel" parent="."]
margin_left = 390.0
margin_top = 152.0
margin_right = 560.0
margin_bottom = 182.0
rect_pivot_offset = Vector2( 56, 15 )
text = "totalPrevScore
"
__meta__ = {
"_edit_use_anchors_": false
}

[node name="accuracyField" type="TextEdit" parent="."]
margin_left = 761.0
margin_top = 217.0
margin_right = 816.0
margin_bottom = 267.0
text = "0"
__meta__ = {
"_edit_use_anchors_": false
}

[node name="streakField" type="TextEdit" parent="."]
margin_left = 824.0
margin_top = 218.0
margin_right = 879.0
margin_bottom = 268.0
text = "0"
__meta__ = {
"_edit_use_anchors_": false
}

[node name="exerciseIDField" type="TextEdit" parent="."]
margin_left = 888.0
margin_top = 216.0
margin_right = 943.0
margin_bottom = 266.0
text = "1"
__meta__ = {
"_edit_use_anchors_": false
}

[node name="exerciseIDFieldLeader" type="TextEdit" parent="."]
margin_left = 40.0
margin_top = 408.0
margin_right = 95.0
margin_bottom = 458.0
text = "1"
__meta__ = {
"_edit_use_anchors_": false
}

[node name="printLeader" type="Button" parent="."]
margin_left = 37.0
margin_top = 467.0
margin_right = 218.0
margin_bottom = 554.0
text = "Print leaderboard to console"
__meta__ = {
"_edit_use_anchors_": false
}

[connection signal="pressed" from="Button2" to="." method="_on_Button2_pressed"]
[connection signal="pressed" from="CompleteExercise" to="." method="_on_CompleteExercise_pressed"]
[connection signal="pressed" from="CreateNewUserDebug" to="." method="_on_CreateNewUserDebug_pressed"]
[connection signal="pressed" from="RemoveSave" to="." method="_on_RemoveSave_pressed"]
[connection signal="pressed" from="printLeader" to="." method="_on_printLeader_pressed"]
